Plantas;Nombre Latin
Abel Blanco;
Abjaquita Morada;
Agua con sal;
Agua de arroz;
Agua de Coco;
Agua de sal y azucar;
Aguacate;
Aguacaté;
Aguacate Morado;
Aguacate, Juana la blanca;
Ahuyama;
Ajai;
Ajalí con Guayaba;
Ajay;
Ajenjo;
Ají;
Ají Caribe;
Ají Grande;
Ají Montesino;
Ají Picante;
Ají Pigmentón;
Ají y Habichuela;
Ajo;
Ajo y Cilantro Ancho;
Ajo y Cilantro|;
Ajo, Apio;
Ajo, Cilanto Oregano, Cebollín;
Ajo, Limón y Tua-Tua;
Ajonjolí;
Alacrancillo;
Alacrancito de flores blancas largas y Malagueta;
Alamisa;
Álamo;
Alamo y Bosquelejos;
Alamo y Canela;
Alamo y Coco Seco;
Alamo y Paja de Coco;
Álamo y Periquito;
Alamo, Canel y Maiz;
Alamo, Guaucil y Auyama;
Albahaca;
Albahaca / Yerbabuena / Anamú;
Albahaca de Vaca;
Albahaca Morada;
Alcanfor;
Alelí;
Algarroba y Remolacha;
Algarrobo;
Algas Marina;
Algodón Morado;
Algodón Morado y Cuaba;
Algodón Morado, Tuna de Paña Y Manzanilla;
Algodonero;
"Alicito; Matuerzo; Perejil; Brazil, Parnacana.";
Almacigo Blanco (cascara);
Almásido;
Almáugo;
Almendra;
Almendra y Canela;
Almendra y Llantén;
Almendras;
Alpasa;
Alpasá, Ajo;
Alpasote;
Alquitira;
Alquitita;
Alquitra;
Altamira;
Altamisa;
Altamisa y Anamu;
Altamisa, Maguey, Malamadre;
Altamisa, Malamadre;
Altemisa;
Altruisa;
Alumbre;
Alusema;
Amacey;
Amapola;
Amor Seco;
Amorseco y Cundeamor;
Anamú;
Anamu y Guanabana;
Anamú y Salvia;
Anamú y Siempre Fresca;
Anamú y Sorosi;
Anamu, Guanabana y Naranja;
Anamú, Jabilla, Maguey de Bertia;
Anamu, Limón y Cuaba;
Ánica;
"Anica; ceite higuiereta";
"Anica; Higuereta";
Anís;
Anis de Estrella;
Anís de Estrella;
Anis Estrella;
Anisete;
Anón;
Apasote;
Apasote / Verdolaga;
Apasote + Ajo;
Apasote y Guajabo;
Apasote, Ahuyama;
Apazote;
Apazote y Ajo;
Apazote y Café;
Apazote y Cáscara de Mamón;
Apazote y Cilantro Ancho;
Apazote y Coco;
Apazote y Sen;
Apazote y Verdolaga;
Apazote, Anamu y Jocobón;
Apazote, Sen y Ajo;
Apazote, Verdolaga, Café y Ajo;
Apio;
Apio, Ajo;
Árbol de Naranjo;
Argusema;
Arnica;
Aroma;
Aroma y Anamu;
Aroma, Guanabana y Maguey;
Arquitira;
Arquitira, Cardo Santo;
Arquitira, Suerda con suerda;
Artamisa;
Artemisa;
Artemsa;
Ausua, Naranja y Canelilla;
Auyama;
Auyama y Café;
Auyama y Coco;
Auyama, ajo, apio;
Auyama, Zapote y Ajo;
AuyamaNo;
Avena;
Azucar de Caña;
Azucenas;
Bacalaito;
Bambú;
Batata;
Batata de Burro;
Batata Sambomba;
Batata Sombomba;
Bayahonda;
Bayajanda Prieta;
Bayaonda;
Behuco de Riñón;
Behuco Indio;
Behuco Riñón;
Bejuco de San Antonio;
Berbona;
Berengena;
Berenjena;
Berenjena Cimarrona;
Berro;
Berro y Cebollín;
Berro, Cebolla y naranja Agria;
Berro, Cebollin  y Rabano;
Berro, Cebollín y Miel de Abeja;
Berro, Limón y Miel de Abejas;
Berro, Miel, Cebollín y Ajonjolí;
Berrón;
Besunuco;
Bija;
Bija, Caña de azúcar, Remolacha;
Bohuco Caro;
Bohuco Chino;
Bohuco de Indio;
Bohuco de Riñón;
Bojuco Abrazo Palo;
Bojuco de Riñón;
Bono;
Borraja;
Brasil;
Bretónica;
Bretonica, Carbosanto, Malamadre.;
Bretónica, Malagueta;
Bretonica, Verbena;
Broquelejo;
Broquelejo y Cundeamor;
Bruca;
Bruca Hembra;
Brusca prieta, cundeamor, cardosanto.;
Bucocaro;
Buenas Noches;
Cabra;
Cabrita;
Cabrita y Naranja;
Cabrita, Guanabana y Limoncillo;
Cabrita, Guanabana, Limoncillo;
Cabrita, Limoncillo, Doña ana.;
Cabrita, Naranja y Limoncillo;
Cabrita, Sinojo y Limoncillo;
Cabrito;
Cacao;
Cacao, Caña y Manzanilla;
Cacao, Cañafisto, Café, Verdolaga;
Cacao, Verdolaga Café;
Cadillo de 3 Pies;
Cadillo de Gato;
Cadillo de Gato, Bojuco de Tango,Pringamosa,Jericó;
"Cadillo Manzo; Mata de Bruja , cadillo 3 pie.";
Café;
Café Cimarrón y Café de Tomar;
Café Cimarrón, Café Dulce,Sen y Chacara (Cohollos);
Café Cimarrón, Café Manso y Cañafistole;
Café con Sen;
Café y Cañafistole;
Café y Palma;
Café y Sen;
Café, Maiz y Ajo;
Café, Sen y Guayaba;
Café. Limón;
Caguaza;
Caiman Cimarrón;
Caimito;
Caina, Balba de maiz Cola de acaballo.;
Cajuil;
Cajuil Morado;
Cajuil, Palo Amargo y Lagrima;
Calaguala;
Caldo Santo;
Caldo Santo y Mala Madre;
Caldo Santo y Tuna de Pañ;
Caldo Santo y Vija;
Caldosanto;
Campeche;
Canafito;
Cancharagua;
Canela;
Canela y Cereza;
Canela y Limón;
Canela y Naranja;
Canela, Guanabana, Limoncillo,Cabrito,Hoja de Rulo;
Canela, Jericó, Cebolla y Mala Madre;
Canela, Limoncillo, Guanabana, Cereza y Malagueta;
Caña;
Caña Agria;
Caña de Azucar;
Caña de Azúcar;
Caña de Castillo;
Caña de Catillo;
Caña Fístola;
Caña Limón;
Cañafistol;
Cañafistola;
Cañafístola;
Cañafistole, Sen, Café y Piña;
Cañita;
Cañuela;
Caranona;
Cardo Santo;
Cardo santo, paja de cebolla y ajo.;
"Cardo Santo; Bija, Sanguinaria Rojas";
Cardosanto;
"Cardosanto; Anamú";
Carmoní;
Carmoní, Yuca, Carbosanto;
Carpintera;
Carpíntera;
Cascara de Guineo;
Cáscara de Huevo con Malagueta;
Cayena;
Cayena, Cabrita + Limón.;
Cayuco;
Cebolla;
Cebolla y Cuaba;
Cebolla y Maní;
Cebolla, Ajo y Canela;
Cebolla, limon, canela;
Cebollas;
Cebollín;
Cebollín y Nuez Moscada;
Cebollines;
Cefé y Guaucil;
Cereza;
Cereza y Canela;
Cereza y Guanabana;
Cereza y Limón;
Cereza y Naranja;
Cereza y Sangre de Cristo;
Cereza, Chinola, Naranja;
Cereza, Guanabana;
Cereza, Limón y Canela;
Cereza, Limón y Dragón;
Cereza, Limón, canela,Timacle;
Cerezas;
Cilantro Ancho;
Cilantro Ancho y Cardo Santo;
Ciruela;
Cizaña;
Clavo Dulce;
Coca-Cola con Bicarbonato;
Coco;
Coco Indio;
Coco y Ajo;
Coco y Canela;
Coco y Cebollín;
Coco y limón;
Coco y Martinica;
Coco y Tua-Tua;
Coco y Zanahoria;
Coco, Higuereta;
Coco, Sen y Piña;
Coco, Zanahoria y Ajo;
Cocotero;
"Cohoyo de Cabuya; Quiebra Hacha; Cabirna.";
Cola de Caballo;
Cola de Caballo y Canela;
Cola de Caballo y Zepa de Maguey;
Cola de Caballo, Cebollín,Alamo,Auyama,Maiz Morado;
Cola de Caballo. Auyama, Canela.;
"Cola de Caballo; Anamú";
Copey;
Coquillo;
Corazón de Paloma;
Córbano;
Cuaba;
Cuaba, Limón Agrio y Canela;
Cuaba, Naranja y Limoncillo;
Cuadrito de Azul y Grinoda;
Cuajabo;
Cudeamor;
Cun de Amor;
Cun de amor, Cisaña;
"Cun de Amor; German; Cardo Santo.";
Cundamor;
Cunde Amor y Cardo Santo;
Cundeamor;
Cundeamor y Ruda;
Cundiamol;
Cundiamor;
Chamico Morado;
Chicharrón;
China;
Chinola;
Chinola y Yuca;
Chinola, Guayaba y Limoncillo;
Chinola, Malagueta, Limón Canela.;
Chocolate con canela;
Date;
Diarrea;
Doña Ana;
Doña Ana y Limoncillo;
Drago;
Dragón;
Dragón, Cereza, Limoncillo y Naranja Agria;
Dragón, Guanabana, Naranja y Limón;
Dragón, Limoncillo, Gengibre, Canela;
El Anamú;
El Coco;
El Chivo;
El Limón;
El Sauco;
El Zapote;
Escobita Amarga;
Espinacas;
Eucalipto;
Eucalito;
Fauta de Maya;
Feregosa;
Feregoza e Hierba Buena;
Flor Copada;
Flor de Arcetillo y Tua-Tua;
Flor de Coco, Behuco de Flores Amarillas;
Flor de Cristo, Cabrita , Guanabana;
Flor de Libertad, Cereza, Naranja, Anamu y Sávila;
Flor de Tilo;
Flor del Peru;
Foregosa;
Fresa;
Fresca - Fresca;
Fresca- Fresca;
Fruta de Maya y Junco;
Gengibre;
Ginojo;
Girasol;
Grama de Patio;
Granada;
Granada Roja;
Granadilla;
Granadillo;
"Granadillo; Guárana";
Granado;
Grayumbo;
Gripe;
Grnadillo y Coco;
Guajaabo;
Guajaba;
Guajabo;
Guama;
Guanábana;
Guánabana;
Guanábana de Perro;
Guanabana y Limoncillo;
Guanabana y Miel;
Guanabana y Momon;
Guanabana y Naranja;
Guanábana, Cabrita y Limoncillo;
Guanabana, Canela, Limón y Naranja;
"Guanábana, Canelilla; Limoncillo";
Guanabana, Cereza, Limoncillo, Juana la Blanca;
Guanabana, Dragón y Cabrita;
Guanabana, Dragón, Libertad y Naranja;
Guanabana, Limón, Canela, Mamú y Limoncillo;
Guanabana, Limoncillo, Naranja y Sauco;
Guanabana, Naranja Agria y Canela;
Guanabana, Naranja, Limón y Cebolla;
"Guanabana; Limoncillo";
Guandul;
Guandules;
Guandules y Cerezas;
Guandules y Patica de Cotorra;
Guanini;
Guansy;
Guárano;
Guarima;
Guasabara;
Guasi;
Guasí;
Guasí y Juana la Blanca;
Guasuma;
Guatapana;
Guatapanal;
Guatapanol;
Guatipanol;
Guaucil y Canela;
Guaucil y Maiz;
Guaucil, Vija y Maiz;
Guausí;
Guayaba;
Guayaba + Malagueta;
Guayaba y Almacigo;
Guayaba y Auyama;
Guayaba y Canela;
Guayaba y Cebollín;
Guayaba y Guandules;
Guayaba y Limón;
Guayaba y Malagueta;
Guayaba y Oregano;
Guayaba y Sabila;
Guayaba y Yerbita de Pujo;
Guayaba, Café y Sen;
Guayaba, Cañafistole y Sen;
Guayaba, Feregoza y Sen;
Guayaba, Malagueta;
Guayabas;
Guayabo;
Guayacal;
Guayacán;
Guayada de la Agria;
Guayiga;
Guayuyo;
Guazúma;
Guineito;
Guineo;
Haba;
Hepipacuana;
Hierba Amarga;
Hierba buena;
Hierba Buena y Malagueta;
Hierba Buena y Marabelí;
Hierba Buena y Pachuli;
"Hierba Buena; Poro; Limoncillo y Cabrita";
Hierba de Mujer y Juana la Blanca;
Hierba Mora;
Hierva de Pujo;
Hiervabuena;
Hierva-Buena, Guayaba;
Higuera;
Higuereta;
Higuereta Morada;
Higuereta, cebollín y sábila;
Higuero;
Hirba Buena;
Hoja de Bruja;
Hoja de Burro;
Hoja de Cabra;
Hoja de Insulina;
Hoja de la Azucar;
Hoja de Pirú;
Hoja de Riñón;
Hoja de Tomate;
Hojas de Naranja Agria;
Huevo Escondido;
Huevo y Limón;
Huevo y Malagueta;
Iguereta;
Inojo;
Insulina;
Iomo;
Jabillo;
Jabota;
Jagua;
Jagua y Jericó;
Jagua y Sen;
Jaguas;
Jasmín;
Javilla;
Jayama;
Jazmín;
Jengibre;
Jengibre Amargo;
Jengibre de Comer;
Jenjibre;
Jenjibre y Berro;
Jenjibre, Naranja y Guanabana;
Jenjibre, Naranja, Limoncillo, Saúco.;
Jeregora;
Jericó;
Jérico;
Jericob;
Jéricob;
Jirico;
Joana la Blanca;
Jobobán;
Juana Blanca;
Juana la Blanca;
Juana la Blanca y Periquito;
Juana la Blanca, Llantén y Senosí;
Juanalablanca;
Jyama;
La Bruca;
La Higuereta;
La Morita;
La naranja;
La quitira;
Languei;
Laurel;
Lechosa;
Lechosa + Malagueta;
Lechosa, Malagueta;
Lechoza;
Lechoza Macho;
Lechoza, Guasi, Pringamosa, Sangría y Coco;
Lechoza, Sauco y Limoncillo;
Lechuga;
Lengua de Chivo;
Lengua de Gallina;
Libertad;
Libertad y Limón;
Ligera;
Limancillo;
Limo;
Limón;
Limón / canela;
Limón + Canela;
Limón Agrio;
Limón con Canela;
Limón Dulce;
Limón Dulce, Malagueta y China;
Limón y Ají;
Limón y Café;
Limón y miel de abeja;
Limón y Naranja Agria;
Limón, Canela Y Maalagueta;
Limón, Canela y Naranja;
"Limón, Guanabana; Cabrita.";
Limón, Miel  y Guatapanol;
Limón, Miel, y Ajo;
Limón, Naranja, Guanabana;
"Limón; Limoncillo; Guanabana.";
Limoncillo;
Limoncillo (hierba) Tomate (hoja).;
Limoncillo y Altamisa;
Limoncillo y Guanabana;
Limoncillo y Guanábana;
Limoncillo y Hinojo;
Limoncillo y Naranja;
Limoncillo, Albahaca Morada y Malagueta;
Limoncillo, Albahaca Morada y Sangre de Cristo;
Limoncillo, Cabrita, Guayaba;
Limoncillo, Canela;
Limoncillo, Canela y Malagueta;
Limoncillo, Canela, Anamú;
Limoncillo, Canela, Chinola y Manzanilla;
Limoncillo, Cereza y Canela;
Limoncillo, Cereza y Guanabana;
Limoncillo, Cereza, Naranja;
Limoncillo, Guanabana y Canela;
Limoncillo, Hierba Buena y Canela;
Limoncillo, Limón;
Limoncillo, Limón y Cereza;
Limoncillo, Limón y Guanábana;
Limoncillo, Limón y Naranja;
Limoncillo, Limón, Jagua y Chinola;
Limoncillo, Naranja Agria, Canela y Limón;
Limoncillo, Naranja y Canela;
Limoncillo, Naranja y Guanabana;
Limoncillo, Naranja y Limón;
Limoncillo, Naranja.;
Limoncillo, Saúco, Limón, Canela;
Limoncillo, Saúco, Limón, Chinola;
Limoncillo,Naranja Agria,Albahaca Morada,Guanabana;
"Limoncillo; Café";
Limoncillos;
Limonero;
Limonero y Guayaba;
Limones;
Limonsillo;
Lino;
Lirio;
Longuei;
Longuey;
"Longuey; Rey del Monte";
Llantén;
Llantén y aguacate;
Llantén y Juana la Blanca;
Llantén, Juana la Blanca;
Llerva Buena;
Madera de Pino;
Magey de Bestia;
Magey y Magueyito;
Maguei;
Maguelito;
Maguellito;
Maguellito coloral;
Maguellito Colorao;
Maguellito Morado;
Maguet de Bestia;
Maguey;
Maguey (es un pajarito);
Maguey Colorao;
Maguey de Bertia;
Maguey de Bestia;
Maguey Morado;
Maguey y Guanabana;
Maguey, Jericó y Juana la Blanca;
Maguey, Jericó, Canela y Corbaño;
Magueyito;
Magueyito Morado;
Maicará;
Maíz;
Mal Casa;
Mal Casada, Tua-Tua y Oregano;
Mala - Madre;
Mala Madre;
"Mala Madre            
Mala Madre";
Mala Madre y Maguey;
Mala Madre y Repollo;
Mala Madre, Llantén, Caldo Santo, Maguey;
Mala madre, Vija y Caldo Santo;
Malagueta;
Malagueta y Limoncillo con hoja de Guanabana;
Malagueta y Piñón de Leche;
Malagueta, Limón y Guanabana;
Malagueta, Mamon, Guayaba y Oregano;
Malagueta, Naranja;
Malamadre;
Malamadre / malpadre;
Malamadre y Altamisa;
Malaquita;
Malaquita y Naranja;
Malva;
Malva y Limón;
Malva y Naranja Agria;
Mamón;
Mamón y Cajuil;
Mamon y Guayaba;
Mamon y Oregano;
Mamón, Tamarindo y Cimarrón;
Mandarina;
Mango;
Mango con Canela;
Maní;
Manzana de Oro;
Manzanilla;
Manzanilla, Naranja y Limón;
Manzanilla, oregano y cilantro;
Manzanillo;
Mapuey;
Marabelis;
Marabélis;
Mararielí;
Maraveli, Coco y Canela;
Marcará;
Marcasá;
Marcasa y Limón Agrio;
Marina;
Marva;
Mastuerzo;
Mata de Coco;
Mata de Chinola;
Mata de Lechoza.;
Mata Dolor;
Mata Puerco;
Matuelso;
Matuelzo;
Matuerso;
Matuerzo;
"Matuerzo; Yanten; Cabrita; Albahaca.";
Maya;
Mazorca;
melaza y Limón Agrio;
Melón Cimarrón;
Melón de Breña;
Melon del monte;
Melón y Piña;
Menstruación;
Menta;
Merba Buena;
Mercado;
Miel de Rosa;
Molinillo;
Molondrón;
Mollejita Morada;
Montenegro;
Mori Vivi;
Morí Viví;
Morivivi;
Naranja;
Naranja + Granada + Malagueta;
Naranja Agria;
Naranja Agria e Higuereta;
Naranja Agria y Limón;
Naranja Agria y Limoncillo;
Naranja Agria y Llantén;
Naranja Agria, Canela, Cereza y Malaquita;
Naranja Agria, Canela, Limoncillo y Cebollín;
Naranja de Jugo;
Naranja Dulce;
Naranja Dulce, Limoncillo y Cereza;
Naranja e Higuereta;
Naranja y Cabrita;
Naranja y Café;
Naranja y Cereza;
Naranja y Guayaba;
Naranja y Jenjibre Amargo;
Naranja y Limón;
Naranja y Limoncillo;
Naranja y Malagueta;
Naranja y Orégano Poleo;
Naranja, Cereza y Torojil;
Naranja, Guanabana, Cuaba, Limon y Anis;
Naranja, Limón y Limoncillo;
Naranja, Limoncillo y Cereza;
Naranja,Limón,Malagueta,Cabrito,Llantén,Limoncillo;
"Naranja; Guayaba; Limoncillo; Suelda.";
Nin;
Níspero;
Níspero con Canela;
Níspero y Coco;
None;
Noni;
Nonio;
Nuez Moscada;
Nuez Moscada y Guayaba;
"Oreganito; Mamón";
Orégano;
Orégano  Poleo;
Orégano  y Cara mona;
Oregano Apio, Ajo.;
Orégano de cocinar y el de la hoja ancha;
Orégano de cocinar y Oregano pulido;
Orégano Disten;
Orégano Ditén;
Orégano Oleo;
Orégano Poleo;
Orégano Poleo y Orégano;
Oregano Poleo y oregano de com y Oregano de comer.;
Oregano Poleo y otro Oregano;
Oregano Poleo, Cadillo Manso, Cascara de Mamón.;
Orégano Poloe;
Oregano Silvestre y Poleo;
Orégano y  Oregano poleo/ comino;
Orégano y Aceite de Coco;
Orégano y Apio;
Orégano y Cara  Mona;
Orégano y Guayaba;
Orégano y Malagueta;
Oregano y Mamon;
Orégano y Naranja;
Orégano y Orégano Poleo;
Oregano, Apio;
Oregano, Limoncillo, Naranja y Guanabana;
Oregano, Mamón;
Orégano, Paja de Ajo y Cohollito de Guayaba;
Oregano, Tua-Tua, Mamon y Sen;
"Oregano; Manzanilla";
Oreganón;
Orosul;
Osua;
Osuá;
Osúa;
Pabellón;
Pachulí;
Paja de Ajo;
Palma;
Palmera;
Palmito;
Palo Amargo;
Palo de Bazil;
Palo de Brasil;
Palo de Braúl;
Palo de Brazil;
Palo de Cruz;
Palo de Riñon;
Papa;
Pararrayo;
Pararrayos;
Parra;
Pasote;
Patano;
Patio de la casa;
Pega Palo y Bacalao;
Pegapalo;
Penda;
Penicilina;
Pepamento;
Pepino;
Perejil;
Periquito;
Perita;
Piedra del Japón;
Pimienta;
Pingamosa;
Pino y Canela;
Piña;
Piñón;
Piñón Ancho;
Piñon Cubano;
Piñón Cubano;
Piñón de Chivo;
Piñon de Leche;
Piñón de Leche, Berenjena y Oregano;
Piñón Extranjero;
Piñon Santo;
Piñón y Cundeamor;
Piñón y Santo Sorasí;
Piñones de Mayo, Flor de Mayo,Tuna de Paña, Canela;
Piñuela;
Pipiguana;
Planta Cun de Amor;
Planta de Anamú;
Planta de Guanabana;
Planta de Guatapana;
Planta de Higuereta;
Planta de Lalmendra;
Planta de Naranja;
Planta de Nigrito;
Planta de Nin;
Planta de Oreganon;
Planta de Piñón.;
Planta de Toronja;
Planta del Mati;
Planta Palo de Brasil;
Planta Pipa Cuana;
Plátano;
Polvano;
Pringamosa;
"Pringamosa; Marabelis; Tinacles";
Quina;
Quina Criolla;
Quinina;
Quinina, Molenillo, Eucalipto y Guanabana;
Quinino;
Rábano;
Rabo de Gato;
Remolacha;
Remolacha, Limón;
Repollo;
Resedad;
Roble;
Roble, Brasil Timacle, Hinojo.;
Roblillo, Yagua y Aguacate;
Romero;
Romero, Berenjena y Cilantro Ancho;
Rompe Saraguey;
Rompe Zaraguey, Guanabana, Limoncillo y Cabrito;
Rompe Zaraguey, Limoncillo y Cabrita;
Rompesaragüey;
Rosa de Pirú;
Ruda;
Ruda y Geranio;
Rulo  Cenizo;
Sabia;
Sábila;
Sabila con miel de aveja;
Sabila, Caña;
Sahuco;
Salbia;
"Salsa Hueca; Maguey";
Salvia;
Samo Amargo;
Sangre de acaristo, Cabrita, Guanabana.;
Sangre de Criste;
Sangre de Cristo;
Sangriario, Verbena;
Sangrinaria, Guayaba, Oregano.;
Sangrinario, Vervena.a;
Santa Elena y Apara Rayos;
Santa María;
Sarabuey;
Sarabuey, Limon y Cabrita;
Sarbia;
Sarón;
Sauco;
Saúco;
Sauco y Moco de pavo criollo;
Sauco, Guanabana y Limón;
Sauco, Lechoza y Limoncillo;
Sauco, Tua-Tua y Moco de Pavo;
Sávila;
Savila, Alquitira;
Semilla de A uyama;
Sén;
Sen - Apazote;
Sen / Jagua;
Sen y Apazote;
Sen y Coco;
Sen y Higuereta;
Sen y Tua-Tua;
Sen, Cola de Csabllo;
Sen, Guayaba, Apazote y Cañafistole;
Siempre Fresca;
Siempre Fresca y Naranja;
Siemprefresca;
Siemprefresca y Sorosi;
Sopalpo, Guaucil y Malagueta;
Sorosel;
Sorosí, Cajuil y Palo Amargo;
Suela con Suela;
Suelda con Suelda;
Suelda Consuelda;
Sueldaconsuelda;
Sumo de Cabra y Cebollín;
Tabaco;
Tallota;
Tamaraindo;
Tamarindo;
Tamarindo, Guanabana;
Tamillo;
Tapa Culo;
Tapaculo;
Tapaculo y Orégano Poleo;
Tapaculo y Uva de Playa;
Tapón de Bagá y Sangre de Cristo;
Tapón de Vagó;
Tayota;
Tayota Blanca;
Tayota Verde;
Tenegosa;
Tilo;
Timacle;
Tomante;
Tomate;
Tomate Riñón;
Tomate y Guajabo;
Tomatico;
Tope y Guineo;
Toronja;
Toronjil;
"Totón de agua; Aguacate; Manzo";
Trés Pies;
Trigo;
Trigo (harina de hacer pan);
Tuatua;
Tua-Tua;
Tua-Tua y Caldo Santo;
Tua-Tua y Feregoza;
Tua-Tua y Suelda con Suelda;
Tuna;
Tuna de España;
Tuna de Paña;
Tuna de Paña y Canela;
Tuna de Paña y Vija;
Tuna de Paña, Llantén y Caldo Santo;
Tuna de Paña, Llantén y Malva;
Tuna de Paña, Mala Madre y Anis Estrella;
Tuna de Paña,Anis Estrella,Maguey Verde,Mala Madre;
Tuna Española;
Tuna Paña;
Tusa;
Uña da Gato;
Uña de Gato;
"Uña de Gato; Chicharrón; Limón; Maguey.";
Uña de Vaca;
Usua u Osua;
Uva;
Uva de Paya;
Uva de Playa;
Valeria;
Valeriana;
Verbene;
Verdecito;
Verdolaba y Berro;
Verdolaga;
Verdolaga, Apazote,Tua-Tua,Bacalaito,Amor, Verbena;
Verdolaga, Café, Apazote y Limón Agrio;
Verdolaga, Café, Cacao;
Viena;
Viga;
Vija;
Vija y Almendra;
Vija y Coco;
Vija y Santoma;
Vija, Caldo Santo y Mala Madre;
Vija, Mala Madre, Cundeamor, Savila y Caldo Santo;
Vinagre con Bicarbonato;
Vini Vini;
Vini-Vini;
Viniviní;
"Yahána, Limón suelda ; Longuey; yanten.";
Yantén;
Yantén y Cardo Santo;
Yantén, Aceite higuereta;
Yerba Amarga;
Yerba Buena;
Yerba de Fiebre;
Yerba de Leche;
Yerba Luisa;
Yerbabuena;
Yuca;
Yuca / Auyama / Lechoza;
Yuca, Jericó y Canela;
Zanahoria;
Zapote;
Zen;
Zepu;
Zucarín;
;
;
