Latin ID;Familia;Genero;Especie;Autor
1;;Acacia;scleroxyla;Tuss.
2;;Agave;;Spp.
3;;Allium;sativum;L.
4;;Allophylus;cominia;(L) Sw.
5;;Aloe;vera;(L) Burm. f.
6;;Alpinia;speciosa;(Wendl) K. Schum.
7;;Althernanthera;paronychioides;St. Hil.
8;;Anacardium;occidentale;L.
9;;Ananas;comosus;(L) Merrill.
10;;Annona;muricata;L.
11;;Annona;reticulata;L.
12;;Argemone;mexicana;L.
13;;Artemisia;domingensis;Urb.
14;;Beta;vulgaria;L.
15;;Bixa;orellana;L.
16;;Borreria;laevis;(Lam) Griseb.
17;;Brassica;oleraceae;L.
18;;Bryophillum;pinnatum;(Lam) Kurz.
19;;Bunchosia;glandulosa;(Cav) L.C.Rich.
20;;Caesalpinia;coriaria;(Jacq) Willd.
21;;Cajanus;cajan;(L) Millsp.
22;;Canavalia;nitida;(Chv)
23;;Capraria;biflora;L.
24;;Capsicum;annum;L.
25;;Cassia;olata;L.
26;;Cassia;domingensis;Spreng.
27;;Cassia;fistula;L.
28;;Cassia;occidentalis;L.
29;;Catalpa;longissima;(Jacq) Dum-Court.
30;;Cedrela;odorata;L.
31;;Cephaelis;ipecacuanha;L.
32;;Chenopodium;ambrosioides;L.
33;;Chiococca;alba;(L) Hitchc.
34;;Chrysanthemus;parthenium;(L) Bernh.
35;;Chrysophillum;cainito;L.
36;;Cinnamomum;zeylanicum;Blume.
37;;Cissus;sicyoides;L.
38;;Citrus;aurantium;L.
39;;Citrus;limetta;Risso.
40;;Citrus;limon;(L) Brum.f.
41;;Citrus;sinensis;(L) Osbeck.
