Id,Plantas,Nombre Latin,,,,
0,Abel Blanco,,,,,
1,Abjaquita Morada,,,,,
2,Agua con sal,,,,,
3,Agua de arroz,,,,,
4,Agua de Coco,,,,,
5,Agua de sal y azucar,,,,,
6,Aguacate,,,,,
7,Aguacaté,,,,,
8,Aguacate Morado,,,,,
9,Aguacate, Juana la blanca,,,,
10,Ahuyama,,,,,
11,Ajai,,,,,
12,Ajalí con Guayaba,,,,,
13,Ajay,,,,,
14,Ajenjo,,,,,
15,Ají,,,,,
16,Ají Caribe,,,,,
17,Ají Grande,,,,,
18,Ají Montesino,,,,,
19,Ají Picante,,,,,
20,Ají Pigmentón,,,,,
21,Ají y Habichuela,,,,,
22,Ajo,,,,,
23,Ajo y Cilantro Ancho,,,,,
24,Ajo y Cilantro|,,,,,
25,Ajo, Apio,,,,
26,Ajo, Cilanto Oregano, Cebollín,,,
27,Ajo, Limón y Tua-Tua,,,,
28,Ajonjolí,,,,,
29,Alacrancillo,,,,,
30,Alacrancito de flores blancas largas y Malagueta,,,,,
31,Alamisa,,,,,
32,Álamo,,,,,
33,Alamo y Bosquelejos,,,,,
34,Alamo y Canela,,,,,
35,Alamo y Coco Seco,,,,,
36,Alamo y Paja de Coco,,,,,
37,Álamo y Periquito,,,,,
38,Alamo, Canel y Maiz,,,,
39,Alamo, Guaucil y Auyama,,,,
40,Albahaca,,,,,
41,Albahaca / Yerbabuena / Anamú,,,,,
42,Albahaca de Vaca,,,,,
43,Albahaca Morada,,,,,
44,Alcanfor,,,,,
45,Alelí,,,,,
46,Algarroba y Remolacha,,,,,
47,Algarrobo,,,,,
48,Algas Marina,,,,,
49,Algodón Morado,,,,,
50,Algodón Morado y Cuaba,,,,,
51,Algodón Morado, Tuna de Paña Y Manzanilla,,,,
52,Algodonero,,,,,
53,"Alicito; Matuerzo; Perejil; Brazil, Parnacana.",,,,,
54,Almacigo Blanco (cascara),,,,,
55,Almásido,,,,,
56,Almáugo,,,,,
57,Almendra,,,,,
58,Almendra y Canela,,,,,
59,Almendra y Llantén,,,,,
60,Almendras,,,,,
61,Alpasa,,,,,
62,Alpasá, Ajo,,,,
63,Alpasote,,,,,
64,Alquitira,,,,,
65,Alquitita,,,,,
66,Alquitra,,,,,
67,Altamira,,,,,
68,Altamisa,,,,,
69,Altamisa y Anamu,,,,,
70,Altamisa, Maguey, Malamadre,,,
71,Altamisa, Malamadre,,,,
72,Altemisa,,,,,
73,Altruisa,,,,,
74,Alumbre,,,,,
75,Alusema,,,,,
76,Amacey,,,,,
77,Amapola,,,,,
78,Amor Seco,,,,,
79,Amorseco y Cundeamor,,,,,
80,Anamú,,,,,
81,Anamu y Guanabana,,,,,
82,Anamú y Salvia,,,,,
83,Anamú y Siempre Fresca,,,,,
84,Anamú y Sorosi,,,,,
85,Anamu, Guanabana y Naranja,,,,
86,Anamú, Jabilla, Maguey de Bertia,,,
87,Anamu, Limón y Cuaba,,,,
88,Ánica,,,,,
89,Anica; ceite higuiereta,,,,,
90,Anica; Higuereta,,,,,
91,Anís,,,,,
92,Anis de Estrella,,,,,
93,Anís de Estrella,,,,,
94,Anis Estrella,,,,,
95,Anisete,,,,,
96,Anón,,,,,
97,Apasote,,,,,
98,Apasote / Verdolaga,,,,,
99,Apasote + Ajo,,,,,
100,Apasote y Guajabo,,,,,
101,Apasote, Ahuyama,,,,
102,Apazote,,,,,
103,Apazote y Ajo,,,,,
104,Apazote y Café,,,,,
105,Apazote y Cáscara de Mamón,,,,,
106,Apazote y Cilantro Ancho,,,,,
107,Apazote y Coco,,,,,
108,Apazote y Sen,,,,,
109,Apazote y Verdolaga,,,,,
110,Apazote, Anamu y Jocobón,,,,
111,Apazote, Sen y Ajo,,,,
112,Apazote, Verdolaga, Café y Ajo,,,
113,Apio,,,,,
114,Apio, Ajo,,,,
115,Árbol de Naranjo,,,,,
116,Argusema,,,,,
117,Arnica,,,,,
118,Aroma,,,,,
119,Aroma y Anamu,,,,,
120,Aroma, Guanabana y Maguey,,,,
121,Arquitira,,,,,
122,Arquitira, Cardo Santo,,,,
123,Arquitira, Suerda con suerda,,,,
124,Artamisa,,,,,
125,Artemisa,,,,,
126,Artemsa,,,,,
127,Ausua, Naranja y Canelilla,,,,
128,Auyama,,,,,
129,Auyama y Café,,,,,
130,Auyama y Coco,,,,,
131,Auyama, ajo, apio,,,
132,Auyama, Zapote y Ajo,,,,
133,AuyamaNo,,,,,
134,Avena,,,,,
135,Azucar de Caña,,,,,
136,Azucenas,,,,,
137,Bacalaito,,,,,
138,Bambú,,,,,
139,Batata,,,,,
140,Batata de Burro,,,,,
141,Batata Sambomba,,,,,
142,Batata Sombomba,,,,,
143,Bayahonda,,,,,
144,Bayajanda Prieta,,,,,
145,Bayaonda,,,,,
146,Behuco de Riñón,,,,,
147,Behuco Indio,,,,,
148,Behuco Riñón,,,,,
149,Bejuco de San Antonio,,,,,
150,Berbona,,,,,
151,Berengena,,,,,
152,Berenjena,,,,,
153,Berenjena Cimarrona,,,,,
154,Berro,,,,,
155,Berro y Cebollín,,,,,
156,Berro, Cebolla y naranja Agria,,,,
157,Berro, Cebollin  y Rabano,,,,
158,Berro, Cebollín y Miel de Abeja,,,,
159,Berro, Limón y Miel de Abejas,,,,
160,Berro, Miel, Cebollín y Ajonjolí,,,
161,Berrón,,,,,
162,Besunuco,,,,,
163,Bija,,,,,
164,Bija, Caña de azúcar, Remolacha,,,
165,Bohuco Caro,,,,,
166,Bohuco Chino,,,,,
167,Bohuco de Indio,,,,,
168,Bohuco de Riñón,,,,,
169,Bojuco Abrazo Palo,,,,,
170,Bojuco de Riñón,,,,,
171,Bono,,,,,
172,Borraja,,,,,
173,Brasil,,,,,
174,Bretónica,,,,,
175,Bretonica, Carbosanto, Malamadre.,,,
176,Bretónica, Malagueta,,,,
177,Bretonica, Verbena,,,,
178,Broquelejo,,,,,
179,Broquelejo y Cundeamor,,,,,
180,Bruca,,,,,
181,Bruca Hembra,,,,,
182,Brusca prieta, cundeamor, cardosanto.,,,
183,Bucocaro,,,,,
184,Buenas Noches,,,,,
185,Cabra,,,,,
186,Cabrita,,,,,
187,Cabrita y Naranja,,,,,
188,Cabrita, Guanabana y Limoncillo,,,,
189,Cabrita, Guanabana, Limoncillo,,,
190,Cabrita, Limoncillo, Doña ana.,,,
191,Cabrita, Naranja y Limoncillo,,,,
192,Cabrita, Sinojo y Limoncillo,,,,
193,Cabrito,,,,,
194,Cacao,,,,,
195,Cacao, Caña y Manzanilla,,,,
196,Cacao, Cañafisto, Café, Verdolaga,,
197,Cacao, Verdolaga Café,,,,
198,Cadillo de 3 Pies,,,,,
199,Cadillo de Gato,,,,,
200,Cadillo de Gato, Bojuco de Tango,Pringamosa,Jericó,,
201,"Cadillo Manzo; Mata de Bruja , cadillo 3 pie.",,,,,
202,Café,,,,,
203,Café Cimarrón y Café de Tomar,,,,,
204,Café Cimarrón, Café Dulce,Sen y Chacara (Cohollos),,,
205,Café Cimarrón, Café Manso y Cañafistole,,,,
206,Café con Sen,,,,,
207,Café y Cañafistole,,,,,
208,Café y Palma,,,,,
209,Café y Sen,,,,,
210,Café, Maiz y Ajo,,,,
211,Café, Sen y Guayaba,,,,
212,Café. Limón,,,,,
213,Caguaza,,,,,
214,Caiman Cimarrón,,,,,
215,Caimito,,,,,
216,Caina, Balba de maiz Cola de acaballo.,,,,
217,Cajuil,,,,,
218,Cajuil Morado,,,,,
219,Cajuil, Palo Amargo y Lagrima,,,,
220,Calaguala,,,,,
221,Caldo Santo,,,,,
222,Caldo Santo y Mala Madre,,,,,
223,Caldo Santo y Tuna de Pañ,,,,,
224,Caldo Santo y Vija,,,,,
225,Caldosanto,,,,,
226,Campeche,,,,,
227,Canafito,,,,,
228,Cancharagua,,,,,
229,Canela,,,,,
230,Canela y Cereza,,,,,
231,Canela y Limón,,,,,
232,Canela y Naranja,,,,,
233,Canela, Guanabana, Limoncillo,Cabrito,Hoja de Rulo,
234,Canela, Jericó, Cebolla y Mala Madre,,,
235,Canela, Limoncillo, Guanabana, Cereza y Malagueta,,
236,Caña,,,,,
237,Caña Agria,,,,,
238,Caña de Azucar,,,,,
239,Caña de Azúcar,,,,,
240,Caña de Castillo,,,,,
241,Caña de Catillo,,,,,
242,Caña Fístola,,,,,
243,Caña Limón,,,,,
244,Cañafistol,,,,,
245,Cañafistola,,,,,
246,Cañafístola,,,,,
247,Cañafistole, Sen, Café y Piña,,,
248,Cañita,,,,,
249,Cañuela,,,,,
250,Caranona,,,,,
251,Cardo Santo,,,,,
252,Cardo santo, paja de cebolla y ajo.,,,,
253,"Cardo Santo; Bija, Sanguinaria Rojas",,,,,
254,Cardosanto,,,,,
255,Cardosanto; Anamú,,,,,
256,Carmoní,,,,,
257,Carmoní, Yuca, Carbosanto,,,
258,Carpintera,,,,,
259,Carpíntera,,,,,
260,Cascara de Guineo,,,,,
261,Cáscara de Huevo con Malagueta,,,,,
262,Cayena,,,,,
263,Cayena, Cabrita + Limón.,,,,
264,Cayuco,,,,,
265,Cebolla,,,,,
266,Cebolla y Cuaba,,,,,
267,Cebolla y Maní,,,,,
268,Cebolla, Ajo y Canela,,,,
269,Cebolla, limon, canela,,,
270,Cebollas,,,,,
271,Cebollín,,,,,
272,Cebollín y Nuez Moscada,,,,,
273,Cebollines,,,,,
274,Cefé y Guaucil,,,,,
275,Cereza,,,,,
276,Cereza y Canela,,,,,
277,Cereza y Guanabana,,,,,
278,Cereza y Limón,,,,,
279,Cereza y Naranja,,,,,
280,Cereza y Sangre de Cristo,,,,,
281,Cereza, Chinola, Naranja,,,
282,Cereza, Guanabana,,,,
283,Cereza, Limón y Canela,,,,
284,Cereza, Limón y Dragón,,,,
285,Cereza, Limón, canela,Timacle,,
286,Cerezas,,,,,
287,Cilantro Ancho,,,,,
288,Cilantro Ancho y Cardo Santo,,,,,
289,Ciruela,,,,,
290,Cizaña,,,,,
291,Clavo Dulce,,,,,
292,Coca-Cola con Bicarbonato,,,,,
293,Coco,,,,,
294,Coco Indio,,,,,
295,Coco y Ajo,,,,,
296,Coco y Canela,,,,,
297,Coco y Cebollín,,,,,
298,Coco y limón,,,,,
299,Coco y Martinica,,,,,
300,Coco y Tua-Tua,,,,,
301,Coco y Zanahoria,,,,,
302,Coco, Higuereta,,,,
303,Coco, Sen y Piña,,,,
304,Coco, Zanahoria y Ajo,,,,
305,Cocotero,,,,,
306,Cohoyo de Cabuya; Quiebra Hacha; Cabirna.,,,,,
307,Cola de Caballo,,,,,
308,Cola de Caballo y Canela,,,,,
309,Cola de Caballo y Zepa de Maguey,,,,,
310,Cola de Caballo, Cebollín,Alamo,Auyama,Maiz Morado,
311,Cola de Caballo. Auyama, Canela.,,,,
312,Cola de Caballo; Anamú,,,,,
313,Copey,,,,,
314,Coquillo,,,,,
315,Corazón de Paloma,,,,,
316,Córbano,,,,,
317,Cuaba,,,,,
318,Cuaba, Limón Agrio y Canela,,,,
319,Cuaba, Naranja y Limoncillo,,,,
320,Cuadrito de Azul y Grinoda,,,,,
321,Cuajabo,,,,,
322,Cudeamor,,,,,
323,Cun de Amor,,,,,
324,Cun de amor, Cisaña,,,,
325,Cun de Amor; German; Cardo Santo.,,,,,
326,Cundamor,,,,,
327,Cunde Amor y Cardo Santo,,,,,
328,Cundeamor,,,,,
329,Cundeamor y Ruda,,,,,
330,Cundiamol,,,,,
331,Cundiamor,,,,,
332,Chamico Morado,,,,,
333,Chicharrón,,,,,
334,China,,,,,
335,Chinola,,,,,
336,Chinola y Yuca,,,,,
337,Chinola, Guayaba y Limoncillo,,,,
338,Chinola, Malagueta, Limón Canela.,,,
339,Chocolate con canela,,,,,
340,Date,,,,,
341,Diarrea,,,,,
342,Doña Ana,,,,,
343,Doña Ana y Limoncillo,,,,,
344,Drago,,,,,
345,Dragón,,,,,
346,Dragón, Cereza, Limoncillo y Naranja Agria,,,
347,Dragón, Guanabana, Naranja y Limón,,,
348,Dragón, Limoncillo, Gengibre, Canela,,
349,El Anamú,,,,,
350,El Coco,,,,,
351,El Chivo,,,,,
352,El Limón,,,,,
353,El Sauco,,,,,
354,El Zapote,,,,,
355,Escobita Amarga,,,,,
356,Espinacas,,,,,
357,Eucalipto,,,,,
358,Eucalito,,,,,
359,Fauta de Maya,,,,,
360,Feregosa,,,,,
361,Feregoza e Hierba Buena,,,,,
362,Flor Copada,,,,,
363,Flor de Arcetillo y Tua-Tua,,,,,
364,Flor de Coco, Behuco de Flores Amarillas,,,,
365,Flor de Cristo, Cabrita , Guanabana,,,
366,Flor de Libertad, Cereza, Naranja, Anamu y Sávila,,
367,Flor de Tilo,,,,,
368,Flor del Peru,,,,,
369,Foregosa,,,,,
370,Fresa,,,,,
371,Fresca - Fresca,,,,,
372,Fresca- Fresca,,,,,
373,Fruta de Maya y Junco,,,,,
374,Gengibre,,,,,
375,Ginojo,,,,,
376,Girasol,,,,,
377,Grama de Patio,,,,,
378,Granada,,,,,
379,Granada Roja,,,,,
380,Granadilla,,,,,
381,Granadillo,,,,,
382,Granadillo; Guárana,,,,,
383,Granado,,,,,
384,Grayumbo,,,,,
385,Gripe,,,,,
386,Grnadillo y Coco,,,,,
387,Guajaabo,,,,,
388,Guajaba,,,,,
389,Guajabo,,,,,
390,Guama,,,,,
391,Guanábana,,,,,
392,Guánabana,,,,,
393,Guanábana de Perro,,,,,
394,Guanabana y Limoncillo,,,,,
395,Guanabana y Miel,,,,,
396,Guanabana y Momon,,,,,
397,Guanabana y Naranja,,,,,
398,Guanábana, Cabrita y Limoncillo,,,,
399,Guanabana, Canela, Limón y Naranja,,,
400,"Guanábana, Canelilla; Limoncillo",,,,,
401,Guanabana, Cereza, Limoncillo, Juana la Blanca,,
402,Guanabana, Dragón y Cabrita,,,,
403,Guanabana, Dragón, Libertad y Naranja,,,
404,Guanabana, Limón, Canela, Mamú y Limoncillo,,
405,Guanabana, Limoncillo, Naranja y Sauco,,,
406,Guanabana, Naranja Agria y Canela,,,,
407,Guanabana, Naranja, Limón y Cebolla,,,
408,Guanabana; Limoncillo,,,,,
409,Guandul,,,,,
410,Guandules,,,,,
411,Guandules y Cerezas,,,,,
412,Guandules y Patica de Cotorra,,,,,
413,Guanini,,,,,
414,Guansy,,,,,
415,Guárano,,,,,
416,Guarima,,,,,
417,Guasabara,,,,,
418,Guasi,,,,,
419,Guasí,,,,,
420,Guasí y Juana la Blanca,,,,,
421,Guasuma,,,,,
422,Guatapana,,,,,
423,Guatapanal,,,,,
424,Guatapanol,,,,,
425,Guatipanol,,,,,
426,Guaucil y Canela,,,,,
427,Guaucil y Maiz,,,,,
428,Guaucil, Vija y Maiz,,,,
429,Guausí,,,,,
430,Guayaba,,,,,
431,Guayaba + Malagueta,,,,,
432,Guayaba y Almacigo,,,,,
433,Guayaba y Auyama,,,,,
434,Guayaba y Canela,,,,,
435,Guayaba y Cebollín,,,,,
436,Guayaba y Guandules,,,,,
437,Guayaba y Limón,,,,,
438,Guayaba y Malagueta,,,,,
439,Guayaba y Oregano,,,,,
440,Guayaba y Sabila,,,,,
441,Guayaba y Yerbita de Pujo,,,,,
442,Guayaba, Café y Sen,,,,
443,Guayaba, Cañafistole y Sen,,,,
444,Guayaba, Feregoza y Sen,,,,
445,Guayaba, Malagueta,,,,
446,Guayabas,,,,,
447,Guayabo,,,,,
448,Guayacal,,,,,
449,Guayacán,,,,,
450,Guayada de la Agria,,,,,
451,Guayiga,,,,,
452,Guayuyo,,,,,
453,Guazúma,,,,,
454,Guineito,,,,,
455,Guineo,,,,,
456,Haba,,,,,
457,Hepipacuana,,,,,
458,Hierba Amarga,,,,,
459,Hierba buena,,,,,
460,Hierba Buena y Malagueta,,,,,
461,Hierba Buena y Marabelí,,,,,
462,Hierba Buena y Pachuli,,,,,
463,Hierba Buena; Poro; Limoncillo y Cabrita,,,,,
464,Hierba de Mujer y Juana la Blanca,,,,,
465,Hierba Mora,,,,,
466,Hierva de Pujo,,,,,
467,Hiervabuena,,,,,
468,Hierva-Buena, Guayaba,,,,
469,Higuera,,,,,
470,Higuereta,,,,,
471,Higuereta Morada,,,,,
472,Higuereta, cebollín y sábila,,,,
473,Higuero,,,,,
474,Hirba Buena,,,,,
475,Hoja de Bruja,,,,,
476,Hoja de Burro,,,,,
477,Hoja de Cabra,,,,,
478,Hoja de Insulina,,,,,
479,Hoja de la Azucar,,,,,
480,Hoja de Pirú,,,,,
481,Hoja de Riñón,,,,,
482,Hoja de Tomate,,,,,
483,Hojas de Naranja Agria,,,,,
484,Huevo Escondido,,,,,
485,Huevo y Limón,,,,,
486,Huevo y Malagueta,,,,,
487,Iguereta,,,,,
488,Inojo,,,,,
489,Insulina,,,,,
490,Iomo,,,,,
491,Jabillo,,,,,
492,Jabota,,,,,
493,Jagua,,,,,
494,Jagua y Jericó,,,,,
495,Jagua y Sen,,,,,
496,Jaguas,,,,,
497,Jasmín,,,,,
498,Javilla,,,,,
499,Jayama,,,,,
500,Jazmín,,,,,
501,Jengibre,,,,,
502,Jengibre Amargo,,,,,
503,Jengibre de Comer,,,,,
504,Jenjibre,,,,,
505,Jenjibre y Berro,,,,,
506,Jenjibre, Naranja y Guanabana,,,,
507,Jenjibre, Naranja, Limoncillo, Saúco.,,
508,Jeregora,,,,,
509,Jericó,,,,,
510,Jérico,,,,,
511,Jericob,,,,,
512,Jéricob,,,,,
513,Jirico,,,,,
514,Joana la Blanca,,,,,
515,Jobobán,,,,,
516,Juana Blanca,,,,,
517,Juana la Blanca,,,,,
518,Juana la Blanca y Periquito,,,,,
519,Juana la Blanca, Llantén y Senosí,,,,
520,Juanalablanca,,,,,
521,Jyama,,,,,
522,La Bruca,,,,,
523,La Higuereta,,,,,
524,La Morita,,,,,
525,La naranja,,,,,
526,La quitira,,,,,
527,Languei,,,,,
528,Laurel,,,,,
529,Lechosa,,,,,
530,Lechosa + Malagueta,,,,,
531,Lechosa, Malagueta,,,,
532,Lechoza,,,,,
533,Lechoza Macho,,,,,
534,Lechoza, Guasi, Pringamosa, Sangría y Coco,,
535,Lechoza, Sauco y Limoncillo,,,,
536,Lechuga,,,,,
537,Lengua de Chivo,,,,,
538,Lengua de Gallina,,,,,
539,Libertad,,,,,
540,Libertad y Limón,,,,,
541,Ligera,,,,,
542,Limancillo,,,,,
543,Limo,,,,,
544,Limón,,,,,
545,Limón / canela,,,,,
546,Limón + Canela,,,,,
547,Limón Agrio,,,,,
548,Limón con Canela,,,,,
549,Limón Dulce,,,,,
550,Limón Dulce, Malagueta y China,,,,
551,Limón y Ají,,,,,
552,Limón y Café,,,,,
553,Limón y miel de abeja,,,,,
554,Limón y Naranja Agria,,,,,
555,Limón, Canela Y Maalagueta,,,,
556,Limón, Canela y Naranja,,,,
557,"Limón, Guanabana; Cabrita.",,,,,
558,Limón, Miel  y Guatapanol,,,,
559,Limón, Miel, y Ajo,,,
560,Limón, Naranja, Guanabana,,,
561,Limón; Limoncillo; Guanabana.,,,,,
562,Limoncillo,,,,,
563,Limoncillo (hierba) Tomate (hoja).,,,,,
564,Limoncillo y Altamisa,,,,,
565,Limoncillo y Guanabana,,,,,
566,Limoncillo y Guanábana,,,,,
567,Limoncillo y Hinojo,,,,,
568,Limoncillo y Naranja,,,,,
569,Limoncillo, Albahaca Morada y Malagueta,,,,
570,Limoncillo, Albahaca Morada y Sangre de Cristo,,,,
571,Limoncillo, Cabrita, Guayaba,,,
572,Limoncillo, Canela,,,,
573,Limoncillo, Canela y Malagueta,,,,
574,Limoncillo, Canela, Anamú,,,
575,Limoncillo, Canela, Chinola y Manzanilla,,,
576,Limoncillo, Cereza y Canela,,,,
577,Limoncillo, Cereza y Guanabana,,,,
578,Limoncillo, Cereza, Naranja,,,
579,Limoncillo, Guanabana y Canela,,,,
580,Limoncillo, Hierba Buena y Canela,,,,
581,Limoncillo, Limón,,,,
582,Limoncillo, Limón y Cereza,,,,
583,Limoncillo, Limón y Guanábana,,,,
584,Limoncillo, Limón y Naranja,,,,
585,Limoncillo, Limón, Jagua y Chinola,,,
586,Limoncillo, Naranja Agria, Canela y Limón,,,
587,Limoncillo, Naranja y Canela,,,,
588,Limoncillo, Naranja y Guanabana,,,,
589,Limoncillo, Naranja y Limón,,,,
590,Limoncillo, Naranja.,,,,
591,Limoncillo, Saúco, Limón, Canela,,
592,Limoncillo, Saúco, Limón, Chinola,,
593,Limoncillo,Naranja Agria,Albahaca Morada,Guanabana,,
594,Limoncillo; Café,,,,,
595,Limoncillos,,,,,
596,Limonero,,,,,
597,Limonero y Guayaba,,,,,
598,Limones,,,,,
599,Limonsillo,,,,,
600,Lino,,,,,
601,Lirio,,,,,
602,Longuei,,,,,
603,Longuey,,,,,
604,Longuey; Rey del Monte,,,,,
605,Llantén,,,,,
606,Llantén y aguacate,,,,,
607,Llantén y Juana la Blanca,,,,,
608,Llantén, Juana la Blanca,,,,
609,Llerva Buena,,,,,
610,Madera de Pino,,,,,
611,Magey de Bestia,,,,,
612,Magey y Magueyito,,,,,
613,Maguei,,,,,
614,Maguelito,,,,,
615,Maguellito,,,,,
616,Maguellito coloral,,,,,
617,Maguellito Colorao,,,,,
618,Maguellito Morado,,,,,
619,Maguet de Bestia,,,,,
620,Maguey,,,,,
621,Maguey (es un pajarito),,,,,
622,Maguey Colorao,,,,,
623,Maguey de Bertia,,,,,
624,Maguey de Bestia,,,,,
625,Maguey Morado,,,,,
626,Maguey y Guanabana,,,,,
627,Maguey, Jericó y Juana la Blanca,,,,
628,Maguey, Jericó, Canela y Corbaño,,,
629,Magueyito,,,,,
630,Magueyito Morado,,,,,
631,Maicará,,,,,
632,Maíz,,,,,
633,Mal Casa,,,,,
634,Mal Casada, Tua-Tua y Oregano,,,,
635,Mala - Madre,,,,,
636,Mala Madre,,,,,
637,"Mala Madre            
Mala Madre",,,,,
638,Mala Madre y Maguey,,,,,
639,Mala Madre y Repollo,,,,,
640,Mala Madre, Llantén, Caldo Santo, Maguey,,
641,Mala madre, Vija y Caldo Santo,,,,
642,Malagueta,,,,,
643,Malagueta y Limoncillo con hoja de Guanabana,,,,,
644,Malagueta y Piñón de Leche,,,,,
645,Malagueta, Limón y Guanabana,,,,
646,Malagueta, Mamon, Guayaba y Oregano,,,
647,Malagueta, Naranja,,,,
648,Malamadre,,,,,
649,Malamadre / malpadre,,,,,
650,Malamadre y Altamisa,,,,,
651,Malaquita,,,,,
652,Malaquita y Naranja,,,,,
653,Malva,,,,,
654,Malva y Limón,,,,,
655,Malva y Naranja Agria,,,,,
656,Mamón,,,,,
657,Mamón y Cajuil,,,,,
658,Mamon y Guayaba,,,,,
659,Mamon y Oregano,,,,,
660,Mamón, Tamarindo y Cimarrón,,,,
661,Mandarina,,,,,
662,Mango,,,,,
663,Mango con Canela,,,,,
664,Maní,,,,,
665,Manzana de Oro,,,,,
666,Manzanilla,,,,,
667,Manzanilla, Naranja y Limón,,,,
668,Manzanilla, oregano y cilantro,,,,
669,Manzanillo,,,,,
670,Mapuey,,,,,
671,Marabelis,,,,,
672,Marabélis,,,,,
673,Mararielí,,,,,
674,Maraveli, Coco y Canela,,,,
675,Marcará,,,,,
676,Marcasá,,,,,
677,Marcasa y Limón Agrio,,,,,
678,Marina,,,,,
679,Marva,,,,,
680,Mastuerzo,,,,,
681,Mata de Coco,,,,,
682,Mata de Chinola,,,,,
683,Mata de Lechoza.,,,,,
684,Mata Dolor,,,,,
685,Mata Puerco,,,,,
686,Matuelso,,,,,
687,Matuelzo,,,,,
688,Matuerso,,,,,
689,Matuerzo,,,,,
690,Matuerzo; Yanten; Cabrita; Albahaca.,,,,,
691,Maya,,,,,
692,Mazorca,,,,,
693,melaza y Limón Agrio,,,,,
694,Melón Cimarrón,,,,,
695,Melón de Breña,,,,,
696,Melon del monte,,,,,
697,Melón y Piña,,,,,
698,Menstruación,,,,,
699,Menta,,,,,
700,Merba Buena,,,,,
701,Mercado,,,,,
702,Miel de Rosa,,,,,
703,Molinillo,,,,,
704,Molondrón,,,,,
705,Mollejita Morada,,,,,
706,Montenegro,,,,,
707,Mori Vivi,,,,,
708,Morí Viví,,,,,
709,Morivivi,,,,,
710,Naranja,,,,,
711,Naranja + Granada + Malagueta,,,,,
712,Naranja Agria,,,,,
713,Naranja Agria e Higuereta,,,,,
714,Naranja Agria y Limón,,,,,
715,Naranja Agria y Limoncillo,,,,,
716,Naranja Agria y Llantén,,,,,
717,Naranja Agria, Canela, Cereza y Malaquita,,,
718,Naranja Agria, Canela, Limoncillo y Cebollín,,,
719,Naranja de Jugo,,,,,
720,Naranja Dulce,,,,,
721,Naranja Dulce, Limoncillo y Cereza,,,,
722,Naranja e Higuereta,,,,,
723,Naranja y Cabrita,,,,,
724,Naranja y Café,,,,,
725,Naranja y Cereza,,,,,
726,Naranja y Guayaba,,,,,
727,Naranja y Jenjibre Amargo,,,,,
728,Naranja y Limón,,,,,
729,Naranja y Limoncillo,,,,,
730,Naranja y Malagueta,,,,,
731,Naranja y Orégano Poleo,,,,,
732,Naranja, Cereza y Torojil,,,,
733,Naranja, Guanabana, Cuaba, Limon y Anis,,
734,Naranja, Limón y Limoncillo,,,,
735,Naranja, Limoncillo y Cereza,,,,
736,Naranja,Limón,Malagueta,Cabrito,Llantén,Limoncillo
737,Naranja; Guayaba; Limoncillo; Suelda.,,,,,
738,Nin,,,,,
739,Níspero,,,,,
740,Níspero con Canela,,,,,
741,Níspero y Coco,,,,,
742,None,,,,,
743,Noni,,,,,
744,Nonio,,,,,
745,Nuez Moscada,,,,,
746,Nuez Moscada y Guayaba,,,,,
747,Oreganito; Mamón,,,,,
748,Orégano,,,,,
749,Orégano  Poleo,,,,,
750,Orégano  y Cara mona,,,,,
751,Oregano Apio, Ajo.,,,,
752,Orégano de cocinar y el de la hoja ancha,,,,,
753,Orégano de cocinar y Oregano pulido,,,,,
754,Orégano Disten,,,,,
755,Orégano Ditén,,,,,
756,Orégano Oleo,,,,,
757,Orégano Poleo,,,,,
758,Orégano Poleo y Orégano,,,,,
759,Oregano Poleo y oregano de com y Oregano de comer.,,,,,
760,Oregano Poleo y otro Oregano,,,,,
761,Oregano Poleo, Cadillo Manso, Cascara de Mamón.,,,
762,Orégano Poloe,,,,,
763,Oregano Silvestre y Poleo,,,,,
764,Orégano y  Oregano poleo/ comino,,,,,
765,Orégano y Aceite de Coco,,,,,
766,Orégano y Apio,,,,,
767,Orégano y Cara  Mona,,,,,
768,Orégano y Guayaba,,,,,
769,Orégano y Malagueta,,,,,
770,Oregano y Mamon,,,,,
771,Orégano y Naranja,,,,,
772,Orégano y Orégano Poleo,,,,,
773,Oregano, Apio,,,,
774,Oregano, Limoncillo, Naranja y Guanabana,,,
775,Oregano, Mamón,,,,
776,Orégano, Paja de Ajo y Cohollito de Guayaba,,,,
777,Oregano, Tua-Tua, Mamon y Sen,,,
778,Oregano; Manzanilla,,,,,
779,Oreganón,,,,,
780,Orosul,,,,,
781,Osua,,,,,
782,Osuá,,,,,
783,Osúa,,,,,
784,Pabellón,,,,,
785,Pachulí,,,,,
786,Paja de Ajo,,,,,
787,Palma,,,,,
788,Palmera,,,,,
789,Palmito,,,,,
790,Palo Amargo,,,,,
791,Palo de Bazil,,,,,
792,Palo de Brasil,,,,,
793,Palo de Braúl,,,,,
794,Palo de Brazil,,,,,
795,Palo de Cruz,,,,,
796,Palo de Riñon,,,,,
797,Papa,,,,,
798,Pararrayo,,,,,
799,Pararrayos,,,,,
800,Parra,,,,,
801,Pasote,,,,,
802,Patano,,,,,
803,Patio de la casa,,,,,
804,Pega Palo y Bacalao,,,,,
805,Pegapalo,,,,,
806,Penda,,,,,
807,Penicilina,,,,,
808,Pepamento,,,,,
809,Pepino,,,,,
810,Perejil,,,,,
811,Periquito,,,,,
812,Perita,,,,,
813,Piedra del Japón,,,,,
814,Pimienta,,,,,
815,Pingamosa,,,,,
816,Pino y Canela,,,,,
817,Piña,,,,,
818,Piñón,,,,,
819,Piñón Ancho,,,,,
820,Piñon Cubano,,,,,
821,Piñón Cubano,,,,,
822,Piñón de Chivo,,,,,
823,Piñon de Leche,,,,,
824,Piñón de Leche, Berenjena y Oregano,,,,
825,Piñón Extranjero,,,,,
826,Piñon Santo,,,,,
827,Piñón y Cundeamor,,,,,
828,Piñón y Santo Sorasí,,,,,
829,Piñones de Mayo, Flor de Mayo,Tuna de Paña, Canela,,
830,Piñuela,,,,,
831,Pipiguana,,,,,
832,Planta Cun de Amor,,,,,
833,Planta de Anamú,,,,,
834,Planta de Guanabana,,,,,
835,Planta de Guatapana,,,,,
836,Planta de Higuereta,,,,,
837,Planta de Lalmendra,,,,,
838,Planta de Naranja,,,,,
839,Planta de Nigrito,,,,,
840,Planta de Nin,,,,,
841,Planta de Oreganon,,,,,
842,Planta de Piñón.,,,,,
843,Planta de Toronja,,,,,
844,Planta del Mati,,,,,
845,Planta Palo de Brasil,,,,,
846,Planta Pipa Cuana,,,,,
847,Plátano,,,,,
848,Polvano,,,,,
849,Pringamosa,,,,,
850,Pringamosa; Marabelis; Tinacles,,,,,
851,Quina,,,,,
852,Quina Criolla,,,,,
853,Quinina,,,,,
854,Quinina, Molenillo, Eucalipto y Guanabana,,,
855,Quinino,,,,,
856,Rábano,,,,,
857,Rabo de Gato,,,,,
858,Remolacha,,,,,
859,Remolacha, Limón,,,,
860,Repollo,,,,,
861,Resedad,,,,,
862,Roble,,,,,
863,Roble, Brasil Timacle, Hinojo.,,,
864,Roblillo, Yagua y Aguacate,,,,
865,Romero,,,,,
866,Romero, Berenjena y Cilantro Ancho,,,,
867,Rompe Saraguey,,,,,
868,Rompe Zaraguey, Guanabana, Limoncillo y Cabrito,,,
869,Rompe Zaraguey, Limoncillo y Cabrita,,,,
870,Rompesaragüey,,,,,
871,Rosa de Pirú,,,,,
872,Ruda,,,,,
873,Ruda y Geranio,,,,,
874,Rulo  Cenizo,,,,,
875,Sabia,,,,,
876,Sábila,,,,,
877,Sabila con miel de aveja,,,,,
878,Sabila, Caña,,,,
879,Sahuco,,,,,
880,Salbia,,,,,
881,Salsa Hueca; Maguey,,,,,
882,Salvia,,,,,
883,Samo Amargo,,,,,
884,Sangre de acaristo, Cabrita, Guanabana.,,,
885,Sangre de Criste,,,,,
886,Sangre de Cristo,,,,,
887,Sangriario, Verbena,,,,
888,Sangrinaria, Guayaba, Oregano.,,,
889,Sangrinario, Vervena.a,,,,
890,Santa Elena y Apara Rayos,,,,,
891,Santa María,,,,,
892,Sarabuey,,,,,
893,Sarabuey, Limon y Cabrita,,,,
894,Sarbia,,,,,
895,Sarón,,,,,
896,Sauco,,,,,
897,Saúco,,,,,
898,Sauco y Moco de pavo criollo,,,,,
899,Sauco, Guanabana y Limón,,,,
900,Sauco, Lechoza y Limoncillo,,,,
901,Sauco, Tua-Tua y Moco de Pavo,,,,
902,Sávila,,,,,
903,Savila, Alquitira,,,,
904,Semilla de A uyama,,,,,
905,Sén,,,,,
906,Sen - Apazote,,,,,
907,Sen / Jagua,,,,,
908,Sen y Apazote,,,,,
909,Sen y Coco,,,,,
910,Sen y Higuereta,,,,,
911,Sen y Tua-Tua,,,,,
912,Sen, Cola de Csabllo,,,,
913,Sen, Guayaba, Apazote y Cañafistole,,,
914,Siempre Fresca,,,,,
915,Siempre Fresca y Naranja,,,,,
916,Siemprefresca,,,,,
917,Siemprefresca y Sorosi,,,,,
918,Sopalpo, Guaucil y Malagueta,,,,
919,Sorosel,,,,,
920,Sorosí, Cajuil y Palo Amargo,,,,
921,Suela con Suela,,,,,
922,Suelda con Suelda,,,,,
923,Suelda Consuelda,,,,,
924,Sueldaconsuelda,,,,,
925,Sumo de Cabra y Cebollín,,,,,
926,Tabaco,,,,,
927,Tallota,,,,,
928,Tamaraindo,,,,,
929,Tamarindo,,,,,
930,Tamarindo, Guanabana,,,,
931,Tamillo,,,,,
932,Tapa Culo,,,,,
933,Tapaculo,,,,,
934,Tapaculo y Orégano Poleo,,,,,
935,Tapaculo y Uva de Playa,,,,,
936,Tapón de Bagá y Sangre de Cristo,,,,,
937,Tapón de Vagó,,,,,
938,Tayota,,,,,
939,Tayota Blanca,,,,,
940,Tayota Verde,,,,,
941,Tenegosa,,,,,
942,Tilo,,,,,
943,Timacle,,,,,
944,Tomante,,,,,
945,Tomate,,,,,
946,Tomate Riñón,,,,,
947,Tomate y Guajabo,,,,,
948,Tomatico,,,,,
949,Tope y Guineo,,,,,
950,Toronja,,,,,
951,Toronjil,,,,,
952,Totón de agua; Aguacate; Manzo,,,,,
953,Trés Pies,,,,,
954,Trigo,,,,,
955,Trigo (harina de hacer pan),,,,,
956,Tuatua,,,,,
957,Tua-Tua,,,,,
958,Tua-Tua y Caldo Santo,,,,,
959,Tua-Tua y Feregoza,,,,,
960,Tua-Tua y Suelda con Suelda,,,,,
961,Tuna,,,,,
962,Tuna de España,,,,,
963,Tuna de Paña,,,,,
964,Tuna de Paña y Canela,,,,,
965,Tuna de Paña y Vija,,,,,
966,Tuna de Paña, Llantén y Caldo Santo,,,,
967,Tuna de Paña, Llantén y Malva,,,,
968,Tuna de Paña, Mala Madre y Anis Estrella,,,,
969,Tuna de Paña,Anis Estrella,Maguey Verde,Mala Madre,,
970,Tuna Española,,,,,
971,Tuna Paña,,,,,
972,Tusa,,,,,
973,Uña da Gato,,,,,
974,Uña de Gato,,,,,
975,Uña de Gato; Chicharrón; Limón; Maguey.,,,,,
976,Uña de Vaca,,,,,
977,Usua u Osua,,,,,
978,Uva,,,,,
979,Uva de Paya,,,,,
980,Uva de Playa,,,,,
981,Valeria,,,,,
982,Valeriana,,,,,
983,Verbene,,,,,
984,Verdecito,,,,,
985,Verdolaba y Berro,,,,,
986,Verdolaga,,,,,
987,Verdolaga, Apazote,Tua-Tua,Bacalaito,Amor, Verbena
988,Verdolaga, Café, Apazote y Limón Agrio,,,
989,Verdolaga, Café, Cacao,,,
990,Viena,,,,,
991,Viga,,,,,
992,Vija,,,,,
993,Vija y Almendra,,,,,
994,Vija y Coco,,,,,
995,Vija y Santoma,,,,,
996,Vija, Caldo Santo y Mala Madre,,,,
997,Vija, Mala Madre, Cundeamor, Savila y Caldo Santo,,
998,Vinagre con Bicarbonato,,,,,
999,Vini Vini,,,,,
1000,Vini-Vini,,,,,
1001,Viniviní,,,,,
1002,"Yahána, Limón suelda ; Longuey; yanten.",,,,,
1003,Yantén,,,,,
1004,Yantén y Cardo Santo,,,,,
1005,Yantén, Aceite higuereta,,,,
1006,Yerba Amarga,,,,,
1007,Yerba Buena,,,,,
1008,Yerba de Fiebre,,,,,
1009,Yerba de Leche,,,,,
1010,Yerba Luisa,,,,,
1011,Yerbabuena,,,,,
1012,Yuca,,,,,
1013,Yuca / Auyama / Lechoza,,,,,
1014,Yuca, Jericó y Canela,,,,
1015,Zanahoria,,,,,
1016,Zapote,,,,,
1017,Zen,,,,,
1018,Zepu,,,,,
1019,Zucarín,,,,,
